…
- I initially tried a barplot of average GDP for this visualization, but
  realized it left out a lot of data. Thus, I reframed the data as a
  boxplot.

### **q3** You should have found *at least* three outliers in q2 (but possibly many more!). Identify those outliers (figure out which countries they are).

``` r
## TASK: Identify the outliers from q2
gapminder %>% 
  filter(year == year_min) %>% 
  filter(continent == "Americas" | continent == "Asia") %>% 
  arrange(desc(gdpPercap))
```

    ## # A tibble: 58 × 6
    ##    country       continent  year lifeExp       pop gdpPercap
    ##    <fct>         <fct>     <int>   <dbl>     <int>     <dbl>
    ##  1 Kuwait        Asia       1952    55.6    160000   108382.
    ##  2 United States Americas   1952    68.4 157553000    13990.
    ##  3 Canada        Americas   1952    68.8  14785584    11367.
    ##  4 Bahrain       Asia       1952    50.9    120447     9867.
    ##  5 Venezuela     Americas   1952    55.1   5439568     7690.
    ##  6 Saudi Arabia  Asia       1952    39.9   4005677     6460.
    ##  7 Argentina     Americas   1952    62.5  17876956     5911.
    ##  8 Uruguay       Americas   1952    66.1   2252965     5717.
    ##  9 Cuba          Americas   1952    59.4   6007797     5587.
    ## 10 Lebanon       Asia       1952    55.9   1439529     4835.
    ## # ℹ 48 more rows
…
