…
    ## Rows: 3220 Columns: 4
    ## ── Column specification ────────────────────────────────────────────────────────
    ## Delimiter: ","
    ## chr (3): Geography, Geographic Area Name, Margin of Error!!Total
    ## dbl (1): Estimate!!Total
    ## 
    ## ℹ Use `spec()` to retrieve the full column specification for this data.
    ## ℹ Specify the column types or set `show_col_types = FALSE` to quiet this message.

``` r
df_pop
```

    ## # A tibble: 3,220 × 4
    ##    Geography     `Geographic Area Name` `Estimate!!Total` Margin of Error!!Tot…¹
    ##    <chr>         <chr>                              <dbl> <chr>                 
    ##  1 0500000US010… Autauga County, Alaba…             55200 *****                 
    ##  2 0500000US010… Baldwin County, Alaba…            208107 *****                 
    ##  3 0500000US010… Barbour County, Alaba…             25782 *****                 
    ##  4 0500000US010… Bibb County, Alabama               22527 *****                 
    ##  5 0500000US010… Blount County, Alabama             57645 *****                 
    ##  6 0500000US010… Bullock County, Alaba…             10352 *****                 
    ##  7 0500000US010… Butler County, Alabama             20025 *****                 
    ##  8 0500000US010… Calhoun County, Alaba…            115098 *****                 
    ##  9 0500000US010… Chambers County, Alab…             33826 *****                 
    ## 10 0500000US010… Cherokee County, Alab…             25853 *****                 
    ## # ℹ 3,210 more rows
    ## # ℹ abbreviated name: ¹​`Margin of Error!!Total`
…
To join these datasets, we’ll need to use [FIPS county
codes](https://en.wikipedia.org/wiki/FIPS_county_code).\[2\] The last
`5` digits of the `id` column in `df_pop` is the FIPS county code, while
the NYT data `df_covid` already contains the `fips`.

### **q3** Process the `id` column of `df_pop` to create a `fips` column.

``` r
## TASK: Create a `fips` column by extracting the county code
df_q3 <- df_pop %>% 
  mutate(fips = str_extract(Geography, pattern = "\\d{5}$"))
df_q3
```

    ## # A tibble: 3,220 × 5
    ##    Geography     `Geographic Area Name` `Estimate!!Total` Margin of Error!!Tot…¹
    ##    <chr>         <chr>                              <dbl> <chr>                 
    ##  1 0500000US010… Autauga County, Alaba…             55200 *****                 
    ##  2 0500000US010… Baldwin County, Alaba…            208107 *****                 
    ##  3 0500000US010… Barbour County, Alaba…             25782 *****                 
    ##  4 0500000US010… Bibb County, Alabama               22527 *****                 
    ##  5 0500000US010… Blount County, Alabama             57645 *****                 
    ##  6 0500000US010… Bullock County, Alaba…             10352 *****                 
    ##  7 0500000US010… Butler County, Alabama             20025 *****                 
    ##  8 0500000US010… Calhoun County, Alaba…            115098 *****                 
    ##  9 0500000US010… Chambers County, Alab…             33826 *****                 
    ## 10 0500000US010… Cherokee County, Alab…             25853 *****                 
    ## # ℹ 3,210 more rows
    ## # ℹ abbreviated name: ¹​`Margin of Error!!Total`
    ## # ℹ 1 more variable: fips <chr>
…
