…
# results
df
```

    ## # A tibble: 1 × 7
    ##       x     L     W   U_0 pred_fit pred_lwr pred_upr
    ##   <dbl> <dbl> <dbl> <dbl>    <dbl>    <dbl>    <dbl>
    ## 1     1   0.2  0.04     1     1.88     1.46     2.30

``` r
validate
```

    ## # A tibble: 60 × 25
    ##        x   idx     L      W   U_0    N_p    k_f   T_f rho_f    mu_f  lam_f  C_fp
    ##    <dbl> <dbl> <dbl>  <dbl> <dbl>  <dbl>  <dbl> <dbl> <dbl>   <dbl>  <dbl> <dbl>
    ##  1  0.25    21 0.198 0.0405  1.89 2.26e6 0.0939  269. 1.23  1.85e-5 0.0363 1263.
    ##  2  0.25    22 0.158 0.0331  2.27 1.56e6 0.115   320. 1.45  2.19e-5 0.0342  982.
    ##  3  0.25    23 0.177 0.0448  2.08 2.15e6 0.0851  332. 0.968 2.24e-5 0.0270  908.
    ##  4  0.25    24 0.141 0.0385  2.49 1.66e6 0.114   344. 1.41  2.29e-5 0.0321 1243.
    ##  5  0.25    25 0.182 0.0366  1.73 2.02e6 0.0887  368. 1.02  2.13e-5 0.0263  866.
    ##  6  0.25    26 0.145 0.0496  1.85 1.89e6 0.124   309. 1.08  2.03e-5 0.0354 1046.
    ##  7  0.25    27 0.162 0.0426  2.22 1.77e6 0.0925  302. 1.05  1.99e-5 0.0376  922.
    ##  8  0.25    28 0.129 0.0346  2.02 2.30e6 0.0817  245. 1.34  1.56e-5 0.0362 1029.
    ##  9  0.25    29 0.193 0.0469  2.43 1.62e6 0.105   291. 1.37  1.80e-5 0.0253  880.
    ## 10  0.25    30 0.153 0.0403  1.69 2.24e6 0.100   360. 1.49  1.68e-5 0.0327 1053.
    ## # ℹ 50 more rows
    ## # ℹ 13 more variables: rho_p <dbl>, d_p <dbl>, C_pv <dbl>, h <dbl>, I_0 <dbl>,
    ## #   eps_p <dbl>, avg_q <dbl>, avg_T <dbl>, rms_T <dbl>, T_norm <dbl>,
    ## #   pred_fit <dbl>, pred_lwr <dbl>, pred_upr <dbl>
…
